fid,label
"94","-15,-12"
"95","-14,-12"
"96","-13,-12"
"106","-3,-12"
"113","4,-12"
"163","10,-13"
"166","13,-13"
"210","13,-14"
"233","-8,-15"
"335","6,-17"
"432","15,-19"
"521","16,-21"
"566","17,-22"
"611","18,-23"
"966","21,-31"
"1010","21,-32"
"1185","20,-36"
"1489","16,-43"
"1526","9,-44"
"1528","11,-44"
"1531","14,-44"
"1532","15,-44"
"1573","12,-45"
"1663","14,-47"
"1703","10,-48"
"1707","14,-48"
