pixelID,level3,lifeform_veg_cat_l4a,canopyco_veg_cat_l4d,watersea_veg_cat_l4a_au,waterstt_wat_cat_l4a,waterper_wat_cat_l4d_au,inttidal_wat_cat_l4a,baregrad_phy_cat_l4d_au,LCCS_Code,LCCS_Description,Red,Green,Blue,Alpha
1,111,,,,,,,,A11,Cultivated Terrestrial Vegetated,151,187,26,255
2,111,1,,,,,,,A11.A1,Cultivated Terrestrial Vegetated: Woody,151,187,26,255
3,111,2,,,,,,,A11.A2,Cultivated Terrestrial Vegetated: Herbaceous,209,224,51,255
4,111,1,10,,,,,,A11.A1.A10,Cultivated Terrestrial Vegetated: Woody Closed (> 65 %),197,168,71,255
5,111,1,12,,,,,,A11.A1.A12,Cultivated Terrestrial Vegetated: Woody Open (40 to 65 %),205,181,75,255
6,111,1,13,,,,,,A11.A1.A13,Cultivated Terrestrial Vegetated: Woody Open (15 to 40 %),213,193,79,255
7,111,1,15,,,,,,A11.A1.A15,Cultivated Terrestrial Vegetated: Woody Sparse (4 to 15 %),228,210,108,255
8,111,1,16,,,,,,A11.A1.A16,Cultivated Terrestrial Vegetated: Woody Scattered (1 to 4 %),242,227,138,255
9,111,2,10,,,,,,A11.A2.A10,Cultivated Terrestrial Vegetated: Herbaceous Closed (> 65 %),228,224,52,255
10,111,2,12,,,,,,A11.A2.A12,Cultivated Terrestrial Vegetated: Herbaceous Open (40 to 65 %),235,232,84,255
11,111,2,13,,,,,,A11.A2.A13,Cultivated Terrestrial Vegetated: Herbaceous Open (15 to 40 %),242,240,127,255
12,111,2,15,,,,,,A11.A2.A15,Cultivated Terrestrial Vegetated: Herbaceous Sparse (4 to 15 %),249,247,174,255
13,111,2,16,,,,,,A11.A2.A16,Cultivated Terrestrial Vegetated: Herbaceous Scattered (1 to 4 %),255,254,222,255
14,112,,,,,,,,A12,Natural Terrestrial Vegetated,14,121,18,255
15,112,1,,,,,,,A12.A1,Natural Terrestrial Vegetated: Woody,26,177,87,255
16,112,2,,,,,,,A12.A2,Natural Terrestrial Vegetated: Herbaceous,94,179,31,255
17,112,1,10,,,,,,A12.A1.A10,Natural Terrestrial Vegetated: Woody Closed (> 65 %),14,121,18,255
18,112,1,12,,,,,,A12.A1.A12,Natural Terrestrial Vegetated: Woody Open (40 to 65 %),45,141,47,255
19,112,1,13,,,,,,A12.A1.A13,Natural Terrestrial Vegetated: Woody Open (15 to 40 %),80,160,82,255
20,112,1,15,,,,,,A12.A1.A15,Natural Terrestrial Vegetated: Woody Sparse (4 to 15 %),117,180,118,255
21,112,1,16,,,,,,A12.A1.A16,Natural Terrestrial Vegetated: Woody Scattered (1 to 4 %),154,199,156,255
22,112,2,10,,,,,,A12.A2.A10,Natural Terrestrial Vegetated: Herbaceous Closed (> 65 %),119,167,30,255
23,112,2,12,,,,,,A12.A2.A12,Natural Terrestrial Vegetated: Herbaceous Open (40 to 65 %),136,182,51,255
24,112,2,13,,,,,,A12.A2.A13,Natural Terrestrial Vegetated: Herbaceous Open (15 to 40 %),153,196,80,255
25,112,2,15,,,,,,A12.A2.A15,Natural Terrestrial Vegetated: Herbaceous Sparse (4 to 15 %),170,212,113,255
26,112,2,16,,,,,,A12.A2.A16,Natural Terrestrial Vegetated: Herbaceous Scattered (1 to 4 %),186,226,146,255
27,123,,,,,,,,A23,Cultivated Aquatic Vegetated,86,236,231,255
28,123,1,,,,,,,A23.A1,Cultivated Aquatic Vegetated: Woody,61,170,140,255
29,123,2,,,,,,,A23.A2,Cultivated Aquatic Vegetated: Herbaceous,82,231,172,255
30,123,1,10,,,,,,A23.A1.A10,Cultivated Aquatic Vegetated: Woody Closed (> 65 %),43,210,203,255
31,123,1,12,,,,,,A23.A1.A12,Cultivated Aquatic Vegetated: Woody Open (40 to 65 %),73,222,216,255
32,123,1,13,,,,,,A23.A1.A13,Cultivated Aquatic Vegetated: Woody Open (15 to 40 %),110,233,228,255
33,123,1,15,,,,,,A23.A1.A15,Cultivated Aquatic Vegetated: Woody Sparse (4 to 15 %),149,244,240,255
34,123,1,16,,,,,,A23.A1.A16,Cultivated Aquatic Vegetated: Woody Scattered (1 to 4 %),187,255,252,255
35,123,2,10,,,,,,A23.A2.A10,Cultivated Aquatic Vegetated: Herbaceous Closed (> 65 %),82,231,196,255
36,123,2,12,,,,,,A23.A2.A12,Cultivated Aquatic Vegetated: Herbaceous Open (40 to 65 %),113,237,208,255
37,123,2,13,,,,,,A23.A2.A13,Cultivated Aquatic Vegetated: Herbaceous Open (15 to 40 %),144,243,220,255
38,123,2,15,,,,,,A23.A2.A15,Cultivated Aquatic Vegetated: Herbaceous Sparse (4 to 15 %),175,249,232,255
39,123,2,16,,,,,,A23.A2.A16,Cultivated Aquatic Vegetated: Herbaceous Scattered (1 to 4 %),207,255,244,255
40,124,,,,,,,,A24,Natural Aquatic Vegetated,30,191,121,255
41,124,1,,,,,,,A24.A1,Natural Aquatic Vegetated: Woody,18,142,148,255
42,124,2,,,,,,,A24.A2,Natural Aquatic Vegetated: Herbaceous,112,234,134,255
43,124,1,10,10,,,,,A24.A1.A10,Natural Aquatic Vegetated: Woody Closed (> 65 %),25,173,109,255
44,124,1,10,1,,,,,A24.A1.A10.C1,Natural Aquatic Vegetated: Woody Closed (> 65 %) Water > 3 months (semi-) permenant,25,173,109,255
45,124,1,10,2,,,,,A24.A1.A10.C2,Natural Aquatic Vegetated: Woody Closed (> 65 %) Water < 3 months (temporary or seasonal),25,173,109,255
46,124,1,12,12,,,,,A24.A1.A12,Natural Aquatic Vegetated: Woody Open (40 to 65 %),53,184,132,255
47,124,1,12,1,,,,,A24.A1.A12.C1,Natural Aquatic Vegetated: Woody Open (40 to 65 %) Water > 3 months (semi-) permenant,53,184,132,255
48,124,1,12,2,,,,,A24.A1.A12.C2,Natural Aquatic Vegetated: Woody Open (40 to 65 %) Water < 3 months (temporary or seasonal),53,184,132,255
49,124,1,13,13,,,,,A24.A1.A13,Natural Aquatic Vegetated: Woody Open (15 to 40 %),93,195,155,255
50,124,1,13,1,,,,,A24.A1.A13.C1,Natural Aquatic Vegetated: Woody Open (15 to 40 %) Water > 3 months (semi-) permenant,93,195,155,255
51,124,1,13,2,,,,,A24.A1.A13.C2,Natural Aquatic Vegetated: Woody Open (15 to 40 %) Water < 3 months (temporary or seasonal),93,195,155,255
52,124,1,15,15,,,,,A24.A1.A15,Natural Aquatic Vegetated: Woody Sparse (4 to 15 %),135,206,178,255
53,124,1,15,1,,,,,A24.A1.A15.C1,Natural Aquatic Vegetated: Woody Sparse (4 to 15 %) Water > 3 months (semi-) permenant,135,206,178,255
54,124,1,15,2,,,,,A24.A1.A15.C2,Natural Aquatic Vegetated: Woody Sparse (4 to 15 %) Water < 3 months (temporary or seasonal),135,206,178,255
55,124,1,16,16,,,,,A24.A1.A16,Natural Aquatic Vegetated: Woody Scattered (1 to 4 %),176,218,201,255
56,124,1,16,1,,,,,A24.A1.A16.C1,Natural Aquatic Vegetated: Woody Scattered (1 to 4 %) Water > 3 months (semi-) permenant,176,218,201,255
57,124,1,16,2,,,,,A24.A1.A16.C2,Natural Aquatic Vegetated: Woody Scattered (1 to 4 %) Water < 3 months (temporary or seasonal),176,218,201,255
58,124,2,10,10,,,,,A24.A2.A10,Natural Aquatic Vegetated: Herbaceous Closed (> 65 %),39,204,139,255
59,124,2,10,1,,,,,A24.A2.A10.C1,Natural Aquatic Vegetated: Herbaceous Closed (> 65 %) Water > 3 months (semi-) permenant,39,204,139,255
60,124,2,10,2,,,,,A24.A2.A10.C2,Natural Aquatic Vegetated: Herbaceous Closed (> 65 %) Water < 3 months (temporary or seasonal),39,204,139,255
61,124,2,12,12,,,,,A24.A2.A12,Natural Aquatic Vegetated: Herbaceous Open (40 to 65 %),66,216,159,255
62,124,2,12,1,,,,,A24.A2.A12.C1,Natural Aquatic Vegetated: Herbaceous Open (40 to 65 %) Water > 3 months (semi-) permenant,66,216,159,255
63,124,2,12,2,,,,,A24.A2.A12.C2,Natural Aquatic Vegetated: Herbaceous Open (40 to 65 %) Water < 3 months (temporary or seasonal),66,216,159,255
64,124,2,13,13,,,,,A24.A2.A13,Natural Aquatic Vegetated: Herbaceous Open (15 to 40 %),99,227,180,255
65,124,2,13,1,,,,,A24.A2.A13.C1,Natural Aquatic Vegetated: Herbaceous Open (15 to 40 %) Water > 3 months (semi-) permenant,99,227,180,255
66,124,2,13,2,,,,,A24.A2.A13.C2,Natural Aquatic Vegetated: Herbaceous Open (15 to 40 %) Water < 3 months (temporary or seasonal),99,227,180,255
67,124,2,15,15,,,,,A24.A2.A15,Natural Aquatic Vegetated: Herbaceous Sparse (4 to 15 %),135,239,201,255
68,124,2,15,1,,,,,A24.A2.A15.C1,Natural Aquatic Vegetated: Herbaceous Sparse (4 to 15 %) Water > 3 months (semi-) permenant,135,239,201,255
69,124,2,15,2,,,,,A24.A2.A15.C2,Natural Aquatic Vegetated: Herbaceous Sparse (4 to 15 %) Water < 3 months (temporary or seasonal),135,239,201,255
70,124,2,16,16,,,,,A24.A2.A16,Natural Aquatic Vegetated: Herbaceous Scattered (1 to 4 %),171,250,221,255
71,124,2,16,1,,,,,A24.A2.A16.C1,Natural Aquatic Vegetated: Herbaceous Scattered (1 to 4 %) Water > 3 months (semi-) permenant,171,250,221,255
72,124,2,16,2,,,,,A24.A2.A16.C2,Natural Aquatic Vegetated: Herbaceous Scattered (1 to 4 %) Water < 3 months (temporary or seasonal),171,250,221,255
73,215,,,,,,,,B15,Artificial Surface,218,92,105,255
74,216,,,,,,,,B16,Natural Surface,243,171,105,255
75,216,,,,,,,10,B16.A10,Natural Surface: Sparsely vegetated,255,230,140,255
76,216,,,,,,,12,B16.A12,Natural Surface: Very sparsely vegetated,250,210,110,255
77,216,,,,,,,15,B16.A15,"Natural Surface: Bare areas, unvegetated",243,171,105,255
78,220,,,,,,,,B20,Water,77,159,220,255
79,220,,,,1,,,,B20.A1,Water: (Water),77,159,220,255
80,220,,,,1,1,,,B20.A1.B1,Water: (Water) Perennial (> 9 months),27,85,186,255
81,220,,,,1,,3,,B20.A1.B3,Water: (Water) Tidal area,187,220,233,255
82,220,,,,1,7,,,B20.A1.B7,Water: (Water) Non-perennial (7 to 9 months),52,121,201,255
83,220,,,,1,8,,,B20.A1.B8,Water: (Water) Non-perennial (4 to 6 months),79,157,217,255
84,220,,,,1,9,,,B20.A1.B9,Water: (Water) Non-perennial (1 to 3 months),133,202,253,255
