1,ctv_extent
2,ntv_extent
3,nav_extent
4,as_extent
5,bs_extent
6,w_extent
7,ctv_ps
8,nav_ps
9,ntv_woody_ps
10,ntv_herbaceous_ps
11,ntv_woody_extent
12,ntv_herbaceous_extent
13,water_persistence
14,bs_grad
