12 -17/2015
-4 -33/2015
-3 -16/2015
4 -30/2015
0 -28/2015
-8 -24/2015
-1 -18/2015
-8 -35/2015
-16 -38/2015
-7 -33/2015
11 -41/2015
14 -36/2015
-12 -36/2015
-12 -30/2015
16 -23/2015
-9 -26/2015
16 -38/2015
8 -21/2015
14 -21/2015
16 -25/2015
17 -25/2015
-6 -35/2015
13 -27/2015
12 -16/2015
1 -31/2015
5 -15/2015
8 -41/2015
-6 -32/2015
11 -12/2015
2 -21/2015
-9 -34/2015
8 -32/2015
-17 -32/2015
20 -28/2015
0 -15/2015
4 -27/2015
-12 -29/2015
-5 -24/2015
11 -23/2015
9 -28/2015
19 -31/2015
14 -25/2015
5 -29/2015
2 -26/2015
15 -32/2015
1 -36/2015
-16 -29/2015
-9 -25/2015
-10 -24/2015
-9 -21/2015
6 -42/2015
16 -41/2015
12 -41/2015
11 -30/2015
-1 -12/2015
-8 -33/2015
11 -33/2015
-8 -25/2015
7 -33/2015
10 -25/2015
-17 -23/2015
0 -31/2015
4 -25/2015
5 -39/2015
4 -37/2015
12 -22/2015
-3 -23/2015
12 -34/2015
12 -46/2015
14 -26/2015
-2 -35/2015
8 -38/2015
-4 -27/2015
1 -24/2015
-13 -39/2015
-17 -28/2015
12 -21/2015
13 -37/2015
-12 -34/2015
11 -23/2015
-7 -26/2015
-4 -24/2015
9 -21/2015
4 -17/2015
3 -18/2015
12 -35/2015
19 -34/2015
-4 -27/2015
-5 -15/2015
1 -26/2015
-10 -23/2015
-7 -33/2015
1 -12/2015
6 -41/2019
5 -22/2019
-9 -21/2019
8 -32/2019
15 -21/2019
-14 -34/2019
-9 -25/2019
10 -31/2019
16 -36/2019
13 -44/2019
-14 -25/2019
-2 -34/2019
9 -42/2019
-12 -32/2019
-9 -35/2019
4 -37/2019
1 -31/2019
-2 -18/2019
-15 -24/2019
-11 -22/2019
-17 -31/2019
12 -36/2019
14 -41/2019
3 -21/2019
0 -26/2019
-9 -19/2019
-2 -34/2019
-4 -26/2019
-13 -22/2019
12 -32/2019
7 -32/2019
2 -13/2019
19 -36/2019
1 -15/2019
12 -36/2019
18 -33/2019
-12 -36/2019
13 -40/2019
-8 -25/2019
6 -36/2019
1 -13/2019
11 -25/2019
6 -41/2019
6 -38/2019
-17 -28/2019
-10 -27/2019
-1 -19/2019
-14 -29/2019
-16 -32/2019
11 -16/2019
-15 -38/2019
7 -38/2019
14 -38/2019
-8 -21/2019
13 -14/2019
7 -26/2019
-14 -22/2019
8 -38/2019
-6 -32/2019
14 -34/2019
6 -37/2019
12 -31/2019
-6 -17/2019
5 -22/2019
5 -32/2019
-9 -26/2019
10 -21/2019
-4 -31/2019
-1 -29/2019
-9 -26/2019
3 -27/2019
9 -38/2019
10 -37/2019
11 -48/2019
-4 -23/2019
-2 -21/2019
-7 -17/2019
0 -25/2019
-15 -36/2019
-10 -37/2019
3 -13/2019
8 -23/2019
-6 -25/2019
-6 -26/2019
20 -32/2019
13 -44/2019
13 -32/2019
-14 -32/2019
-18 -27/2019
-6 -21/2019
12 -13/2019
7 -20/2019
-10 -29/2019